<?xml version="1.0" encoding="iso-8859-1"?>
<!-- Generator: Adobe Illustrator 18.1.1, SVG Export Plug-In . SVG Version: 6.00 Build 0)  -->
<svg version="1.0" id="Calque_1" xmlns="http://www.w3.org/2000/svg" xmlns:xlink="http://www.w3.org/1999/xlink" x="0px" y="0px"
	 viewBox="0 0 180 70" style="enable-background:new 0 0 180 70;" xml:space="preserve">
<g>
	<path style="stroke:#070707;stroke-width:0.4609;stroke-miterlimit:10;" d="M75.987,9.539c-7.385,0-13.172,3.087-13.172,7.02V53.44
		c0,3.944,5.788,7.02,13.172,7.02s13.172-3.087,13.172-7.02V16.56C89.159,12.626,83.371,9.539,75.987,9.539z M87.401,53.451
		c0,2.54-4.587,5.273-11.415,5.273s-11.415-2.733-11.415-5.273v-1.726c2.251,2.101,6.474,3.483,11.415,3.483
		c4.941,0,9.164-1.383,11.415-3.483V53.451z M87.401,48.178c0,2.54-4.587,5.273-11.415,5.273s-11.415-2.733-11.415-5.273v-1.726
		c2.251,2.101,6.474,3.483,11.415,3.483c4.941,0,9.164-1.383,11.415-3.483V48.178z M87.401,42.905c0,2.54-4.587,5.273-11.415,5.273
		s-11.415-2.722-11.415-5.273v-1.726c2.251,2.101,6.474,3.483,11.415,3.483c4.941,0,9.164-1.383,11.415-3.483V42.905z
		 M87.401,37.642c0,2.54-4.587,5.273-11.415,5.273s-11.415-2.733-11.415-5.273v-1.726c2.251,2.09,6.474,3.483,11.415,3.483
		c4.941,0,9.164-1.383,11.415-3.483V37.642z M87.401,32.369c0,2.54-4.587,5.273-11.415,5.273s-11.415-2.722-11.415-5.273v-1.726
		c2.251,2.101,6.474,3.483,11.415,3.483c4.941,0,9.164-1.383,11.415-3.483V32.369z M87.401,27.106c0,2.54-4.587,5.273-11.415,5.273
		s-11.415-2.733-11.415-5.273v-1.726c2.251,2.101,6.474,3.483,11.415,3.483c4.941,0,9.164-1.383,11.415-3.483V27.106z
		 M87.401,21.833c0,2.54-4.587,5.273-11.415,5.273s-11.415-2.733-11.415-5.273v-1.726c2.251,2.101,6.474,3.483,11.415,3.483
		c4.941,0,9.164-1.383,11.415-3.483V21.833z M75.987,21.833c-6.827,0-11.415-2.722-11.415-5.273c0-2.54,4.587-5.273,11.415-5.273
		s11.415,2.722,11.415,5.273C87.401,19.111,82.814,21.833,75.987,21.833z"/>
	<path style="stroke:#070707;stroke-width:0.4609;stroke-miterlimit:10;" d="M104.089,30.611c-7.385,0-13.172,3.087-13.172,7.02
		V53.44c0,3.944,5.788,7.02,13.172,7.02s13.172-3.076,13.172-7.01V37.642C117.262,33.698,111.474,30.611,104.089,30.611z
		 M115.504,53.451c0,2.54-4.587,5.273-11.415,5.273s-11.415-2.722-11.415-5.273v-1.726c2.251,2.101,6.474,3.483,11.415,3.483
		s9.164-1.383,11.415-3.483V53.451z M115.504,48.178c0,2.54-4.587,5.273-11.415,5.273s-11.415-2.722-11.415-5.273v-1.726
		c2.251,2.101,6.474,3.483,11.415,3.483s9.164-1.383,11.415-3.483V48.178z M115.504,42.905c0,2.54-4.587,5.273-11.415,5.273
		s-11.415-2.722-11.415-5.273v-1.726c2.251,2.101,6.474,3.483,11.415,3.483s9.164-1.383,11.415-3.483V42.905z M104.089,42.905
		c-6.827,0-11.415-2.722-11.415-5.273c0-2.54,4.587-5.273,11.415-5.273s11.415,2.722,11.415,5.273
		C115.504,40.182,110.917,42.905,104.089,42.905z"/>
</g>
</svg>
