<?xml version="1.0" encoding="iso-8859-1"?>
<!-- Generator: Adobe Illustrator 18.1.1, SVG Export Plug-In . SVG Version: 6.00 Build 0)  -->
<svg version="1.0" id="Calque_1" xmlns="http://www.w3.org/2000/svg" xmlns:xlink="http://www.w3.org/1999/xlink" x="0px" y="0px"
	 viewBox="0 0 180 70" style="enable-background:new 0 0 180 70;" xml:space="preserve">
<g>
	<path style="stroke:#070707;stroke-width:0.4609;stroke-miterlimit:10;" d="M75.987,9.539c-7.385,0-13.172,3.087-13.172,7.02V53.44
		c0,3.944,5.788,7.02,13.172,7.02s13.172-3.087,13.172-7.02V16.56C89.159,12.626,83.371,9.539,75.987,9.539z M87.401,53.451
		c0,2.54-4.587,5.273-11.415,5.273s-11.415-2.733-11.415-5.273v-1.726c2.251,2.101,6.474,3.483,11.415,3.483
		c4.941,0,9.164-1.383,11.415-3.483V53.451z M87.401,48.178c0,2.54-4.587,5.273-11.415,5.273s-11.415-2.733-11.415-5.273v-1.726
		c2.251,2.101,6.474,3.483,11.415,3.483c4.941,0,9.164-1.383,11.415-3.483V48.178z M87.401,42.905c0,2.54-4.587,5.273-11.415,5.273
		s-11.415-2.722-11.415-5.273v-1.726c2.251,2.101,6.474,3.483,11.415,3.483c4.941,0,9.164-1.383,11.415-3.483V42.905z
		 M87.401,37.642c0,2.54-4.587,5.273-11.415,5.273s-11.415-2.733-11.415-5.273v-1.726c2.251,2.09,6.474,3.483,11.415,3.483
		c4.941,0,9.164-1.383,11.415-3.483V37.642z M87.401,32.369c0,2.54-4.587,5.273-11.415,5.273s-11.415-2.722-11.415-5.273v-1.726
		c2.251,2.101,6.474,3.483,11.415,3.483c4.941,0,9.164-1.383,11.415-3.483V32.369z M87.401,27.106c0,2.54-4.587,5.273-11.415,5.273
		s-11.415-2.733-11.415-5.273v-1.726c2.251,2.101,6.474,3.483,11.415,3.483c4.941,0,9.164-1.383,11.415-3.483V27.106z
		 M87.401,21.833c0,2.54-4.587,5.273-11.415,5.273s-11.415-2.733-11.415-5.273v-1.726c2.251,2.101,6.474,3.483,11.415,3.483
		c4.941,0,9.164-1.383,11.415-3.483V21.833z M75.987,21.833c-6.827,0-11.415-2.722-11.415-5.273c0-2.54,4.587-5.273,11.415-5.273
		s11.415,2.722,11.415,5.273C87.401,19.111,82.814,21.833,75.987,21.833z"/>
	<path style="stroke:#070707;stroke-width:0.4609;stroke-miterlimit:10;" d="M104.089,30.611c-7.385,0-13.172,3.087-13.172,7.02
		V53.44c0,3.944,5.788,7.02,13.172,7.02s13.172-3.076,13.172-7.01V37.642C117.262,33.698,111.474,30.611,104.089,30.611z
		 M115.504,53.451c0,2.54-4.587,5.273-11.415,5.273s-11.415-2.722-11.415-5.273v-1.726c2.251,2.101,6.474,3.483,11.415,3.483
		s9.164-1.383,11.415-3.483V53.451z M115.504,48.178c0,2.54-4.587,5.273-11.415,5.273s-11.415-2.722-11.415-5.273v-1.726
		c2.251,2.101,6.474,3.483,11.415,3.483s9.164-1.383,11.415-3.483V48.178z M115.504,42.905c0,2.54-4.587,5.273-11.415,5.273
		s-11.415-2.722-11.415-5.273v-1.726c2.251,2.101,6.474,3.483,11.415,3.483s9.164-1.383,11.415-3.483V42.905z M104.089,42.905
		c-6.827,0-11.415-2.722-11.415-5.273c0-2.54,4.587-5.273,11.415-5.273s11.415,2.722,11.415,5.273
		C115.504,40.182,110.917,42.905,104.089,42.905z"/>
</g>
<g>
	<path style="stroke:#070707;stroke-width:0.4609;stroke-miterlimit:10;" d="M15.176,9.539c-7.385,0-13.172,3.087-13.172,7.02V53.44
		c0,3.944,5.788,7.02,13.172,7.02s13.172-3.087,13.172-7.02V16.56C28.348,12.626,22.56,9.539,15.176,9.539z M26.59,53.451
		c0,2.54-4.587,5.273-11.415,5.273S3.761,55.991,3.761,53.451v-1.726c2.251,2.101,6.474,3.483,11.415,3.483
		s9.164-1.383,11.415-3.483V53.451z M26.59,48.178c0,2.54-4.587,5.273-11.415,5.273S3.761,50.718,3.761,48.178v-1.726
		c2.251,2.101,6.474,3.483,11.415,3.483s9.164-1.383,11.415-3.483V48.178z M26.59,42.905c0,2.54-4.587,5.273-11.415,5.273
		S3.761,45.455,3.761,42.905v-1.726c2.251,2.101,6.474,3.483,11.415,3.483s9.164-1.383,11.415-3.483V42.905z M26.59,37.642
		c0,2.54-4.587,5.273-11.415,5.273S3.761,40.182,3.761,37.642v-1.726c2.251,2.09,6.474,3.483,11.415,3.483s9.164-1.383,11.415-3.483
		V37.642z M26.59,32.369c0,2.54-4.587,5.273-11.415,5.273S3.761,34.92,3.761,32.369v-1.726c2.251,2.101,6.474,3.483,11.415,3.483
		s9.164-1.383,11.415-3.483V32.369z M26.59,27.106c0,2.54-4.587,5.273-11.415,5.273S3.761,29.646,3.761,27.106v-1.726
		c2.251,2.101,6.474,3.483,11.415,3.483s9.164-1.383,11.415-3.483V27.106z M26.59,21.833c0,2.54-4.587,5.273-11.415,5.273
		S3.761,24.373,3.761,21.833v-1.726c2.251,2.101,6.474,3.483,11.415,3.483s9.164-1.383,11.415-3.483V21.833z M15.176,21.833
		c-6.827,0-11.415-2.722-11.415-5.273c0-2.54,4.587-5.273,11.415-5.273S26.59,14.009,26.59,16.56
		C26.59,19.111,22.003,21.833,15.176,21.833z"/>
	<path style="stroke:#070707;stroke-width:0.4609;stroke-miterlimit:10;" d="M43.278,30.611c-7.385,0-13.172,3.087-13.172,7.02
		V53.44c0,3.944,5.788,7.02,13.172,7.02s13.172-3.076,13.172-7.01V37.642C56.451,33.698,50.663,30.611,43.278,30.611z
		 M54.693,53.451c0,2.54-4.587,5.273-11.415,5.273s-11.415-2.722-11.415-5.273v-1.726c2.251,2.101,6.474,3.483,11.415,3.483
		s9.164-1.383,11.415-3.483V53.451z M54.693,48.178c0,2.54-4.587,5.273-11.415,5.273s-11.415-2.722-11.415-5.273v-1.726
		c2.251,2.101,6.474,3.483,11.415,3.483s9.164-1.383,11.415-3.483V48.178z M54.693,42.905c0,2.54-4.587,5.273-11.415,5.273
		s-11.415-2.722-11.415-5.273v-1.726c2.251,2.101,6.474,3.483,11.415,3.483s9.164-1.383,11.415-3.483V42.905z M43.278,42.905
		c-6.827,0-11.415-2.722-11.415-5.273c0-2.54,4.587-5.273,11.415-5.273s11.415,2.722,11.415,5.273
		C54.693,40.182,50.106,42.905,43.278,42.905z"/>
</g>
<g>
	<path style="stroke:#070707;stroke-width:0.4609;stroke-miterlimit:10;" d="M136.798,9.539c-7.385,0-13.172,3.087-13.172,7.02
		V53.44c0,3.944,5.788,7.02,13.172,7.02c7.385,0,13.172-3.087,13.172-7.02V16.56C149.97,12.626,144.183,9.539,136.798,9.539z
		 M148.213,53.451c0,2.54-4.587,5.273-11.415,5.273s-11.415-2.733-11.415-5.273v-1.726c2.251,2.101,6.474,3.483,11.415,3.483
		c4.941,0,9.164-1.383,11.415-3.483V53.451z M148.213,48.178c0,2.54-4.587,5.273-11.415,5.273s-11.415-2.733-11.415-5.273v-1.726
		c2.251,2.101,6.474,3.483,11.415,3.483c4.941,0,9.164-1.383,11.415-3.483V48.178z M148.213,42.905c0,2.54-4.587,5.273-11.415,5.273
		s-11.415-2.722-11.415-5.273v-1.726c2.251,2.101,6.474,3.483,11.415,3.483c4.941,0,9.164-1.383,11.415-3.483V42.905z
		 M148.213,37.642c0,2.54-4.587,5.273-11.415,5.273s-11.415-2.733-11.415-5.273v-1.726c2.251,2.09,6.474,3.483,11.415,3.483
		c4.941,0,9.164-1.383,11.415-3.483V37.642z M148.213,32.369c0,2.54-4.587,5.273-11.415,5.273s-11.415-2.722-11.415-5.273v-1.726
		c2.251,2.101,6.474,3.483,11.415,3.483c4.941,0,9.164-1.383,11.415-3.483V32.369z M148.213,27.106c0,2.54-4.587,5.273-11.415,5.273
		s-11.415-2.733-11.415-5.273v-1.726c2.251,2.101,6.474,3.483,11.415,3.483c4.941,0,9.164-1.383,11.415-3.483V27.106z
		 M148.213,21.833c0,2.54-4.587,5.273-11.415,5.273s-11.415-2.733-11.415-5.273v-1.726c2.251,2.101,6.474,3.483,11.415,3.483
		c4.941,0,9.164-1.383,11.415-3.483V21.833z M136.798,21.833c-6.827,0-11.415-2.722-11.415-5.273c0-2.54,4.587-5.273,11.415-5.273
		s11.415,2.722,11.415,5.273C148.213,19.111,143.625,21.833,136.798,21.833z"/>
	<path style="stroke:#070707;stroke-width:0.4609;stroke-miterlimit:10;" d="M164.9,30.611c-7.385,0-13.172,3.087-13.172,7.02V53.44
		c0,3.944,5.788,7.02,13.172,7.02c7.385,0,13.172-3.076,13.172-7.01V37.642C178.073,33.698,172.285,30.611,164.9,30.611z
		 M176.315,53.451c0,2.54-4.587,5.273-11.415,5.273s-11.415-2.722-11.415-5.273v-1.726c2.251,2.101,6.474,3.483,11.415,3.483
		s9.164-1.383,11.415-3.483V53.451z M176.315,48.178c0,2.54-4.587,5.273-11.415,5.273s-11.415-2.722-11.415-5.273v-1.726
		c2.251,2.101,6.474,3.483,11.415,3.483s9.164-1.383,11.415-3.483V48.178z M176.315,42.905c0,2.54-4.587,5.273-11.415,5.273
		s-11.415-2.722-11.415-5.273v-1.726c2.251,2.101,6.474,3.483,11.415,3.483s9.164-1.383,11.415-3.483V42.905z M164.9,42.905
		c-6.827,0-11.415-2.722-11.415-5.273c0-2.54,4.587-5.273,11.415-5.273s11.415,2.722,11.415,5.273
		C176.315,40.182,171.728,42.905,164.9,42.905z"/>
</g>
</svg>
