<?xml version="1.0" encoding="iso-8859-1"?>
<!-- Generator: Adobe Illustrator 18.1.1, SVG Export Plug-In . SVG Version: 6.00 Build 0)  -->
<svg version="1.0" id="Calque_1" xmlns="http://www.w3.org/2000/svg" xmlns:xlink="http://www.w3.org/1999/xlink" x="0px" y="0px"
	 viewBox="0 0 180 70" style="enable-background:new 0 0 180 70;" xml:space="preserve">
<g>
	<path d="M92.39,12.215V7.259c0-0.725-0.483-1.209-1.209-1.209s-1.209,0.483-1.209,1.209v4.956v11.362v29.614
		c-4.714,0.604-8.461,4.714-8.461,9.549c0,0.725,0.483,1.209,1.209,1.209h16.922c0.725,0,1.209-0.483,1.209-1.209
		c0-4.956-3.747-8.945-8.461-9.549V23.698V12.215z M98.071,61.653H83.808c0.604-3.384,3.505-6.044,7.132-6.044
		C94.566,55.609,97.467,58.268,98.071,61.653z"/>
</g>
<g>
	<path d="M96.29,17.893l10.76-2.282l-4.382,20.7l0,0c0,0,0.025,0.118,0.05,0.236c0.025,0.118,0.025,0.118,0.05,0.236l0,0
		c1.204,5.676,6.794,9.309,12.469,8.105c5.676-1.204,9.309-6.794,8.105-12.469l0,0c-0.025-0.118-0.025-0.118-0.05-0.236
		c-0.025-0.118-0.025-0.118-0.05-0.236l0,0l-13.444-18.525c-0.219-0.448-0.767-0.702-1.24-0.602l-12.534,2.659L84.91,17.835
		l-12.652,2.684c-0.473,0.1-0.871,0.555-0.889,1.053L66.604,43.96l0,0c0,0,0.025,0.118,0.05,0.236
		c0.025,0.118,0.025,0.118,0.05,0.236l0,0c1.204,5.676,6.794,9.309,12.14,8.299c5.676-1.204,9.309-6.794,8.105-12.469l0,0
		c-0.025-0.118-0.025-0.118-0.05-0.236c-0.025-0.118-0.025-0.118-0.05-0.236l0,0L74.44,22.651l10.76-2.282L96.29,17.893z
		 M73.254,24.632l10.699,14.906L69.41,42.623L73.254,24.632z M120.254,31.838l-14.544,3.085l3.726-17.966L120.254,31.838z
		 M105.621,37.414l15.608-3.311c0.211,3.909-2.472,7.568-6.374,8.395C110.952,43.326,107.015,41.072,105.621,37.414z M87.408,18.541
		L87.408,18.541L87.408,18.541 M94.054,17.255L94.054,17.255L94.054,17.255 M69.438,45.088l15.608-3.311
		c0.211,3.909-2.472,7.568-6.374,8.395C74.652,51.026,70.832,48.747,69.438,45.088z"/>
</g>
<g>
	<path style="fill:#FFFFFF;" d="M91.246,22.5c-2.533,0-4.594-2.061-4.594-4.594s2.061-4.594,4.594-4.594s4.594,2.061,4.594,4.594
		S93.779,22.5,91.246,22.5z"/>
	<path d="M91.246,14.562c1.844,0,3.344,1.5,3.344,3.344s-1.5,3.344-3.344,3.344s-3.344-1.5-3.344-3.344S89.402,14.562,91.246,14.562
		 M91.246,12.062c-3.227,0-5.844,2.616-5.844,5.844s2.616,5.844,5.844,5.844s5.844-2.616,5.844-5.844S94.474,12.062,91.246,12.062
		L91.246,12.062z"/>
</g>
</svg>
